<?xml version="1.0" encoding="UTF-8" standalone="no"?>
<!DOCTYPE svg PUBLIC "-//W3C//DTD SVG 1.1//EN" "http://www.w3.org/Graphics/SVG/1.1/DTD/svg11.dtd">
<svg width="100%" height="100%" viewBox="0 0 505 505" version="1.1" xmlns="http://www.w3.org/2000/svg" xmlns:xlink="http://www.w3.org/1999/xlink" xml:space="preserve" xmlns:serif="http://www.serif.com/" style="fill-rule:evenodd;clip-rule:evenodd;stroke-linejoin:round;stroke-miterlimit:2;">
    <circle cx="252.06" cy="252.06" r="252.06" style="fill:rgb(46,170,158);"/>
    <path d="M463.163,114.609L240.246,345.403L240.64,370.215L250.88,370.215L492.308,175.655C485.218,153.994 475.372,133.12 463.163,114.609Z" style="fill:rgb(55,161,142);fill-rule:nonzero;"/>
    <path d="M499.397,103.582L454.892,59.471C448.984,53.563 439.138,53.563 432.837,59.471L242.609,256L160.295,174.868C154.387,168.96 144.541,168.96 138.24,174.868L98.855,213.859C92.947,219.767 92.947,229.613 98.855,235.521L230.4,365.883C233.945,369.428 238.671,370.609 243.397,370.215C248.123,370.609 252.849,369.427 256.394,365.883L499.397,125.637C505.305,119.335 505.305,109.489 499.397,103.582Z" style="fill:rgb(242,241,239);fill-rule:nonzero;"/>
    <path d="M256.394,365.883L499.397,125.637C505.305,119.729 505.305,109.883 499.397,103.975L492.308,97.28L243.003,342.252L105.157,207.951L99.249,213.859C93.341,219.767 93.341,229.613 99.249,235.521L230.794,365.884C234.339,369.429 239.065,370.61 243.791,370.216C248.123,370.609 252.849,369.428 256.394,365.883Z" style="fill:rgb(230,229,227);fill-rule:nonzero;"/>
</svg>
